{
    "banner_height":25,
    "frame_time":20,
    "gpus":[
        {
            "config_hash":"f7ee34f0",
            "desktop_type":"shared",
            "device_path":"/dev/dri/card0",
            "displays":[
                {
                    "edid_hash":"868921ab",
                    "modes":[
                        {"height":1080,"name":"1920x1080","width":1920},
                        {"height":1050,"name":"1680x1050","width":1680},
                        {"height":1024,"name":"1280x1024","width":1280},
                        {"height":900,"name":"1440x900","width":1440},
                        {"height":960,"name":"1280x960","width":1280},
                        {"height":800,"name":"1280x800","width":1280},
                        {"height":864,"name":"1152x864","width":1152},
                        {"height":720,"name":"1280x720","width":1280},
                        {"height":768,"name":"1024x768","width":1024},
                        {"height":624,"name":"832x624","width":832},
                        {"height":600,"name":"800x600","width":800},
                        {"height":480,"name":"640x480","width":640},
                        {"height":400,"name":"720x400","width":720}
                    ],
                    "name":"HDMIA2",
                    "preferred_mode_index":0,
                    "uuid":"none",
                    "x":0,
                    "y":0
                }
            ],
            "name":"i915",
            "renderable":true
        },
        {
            "config_hash":"ffffffff",
            "desktop_type":"dedicated",
            "device_path":"0000:01:00.0",
            "displays":[
                {
                    "edid_hash":"ffffffff",
                    "modes":[
                        {"height":1080,"name":"1920x1080","width":1920}
                    ],
                    "name":"D_2589458688",
                    "preferred_mode_index":0,
                    "uuid":"f2989b36-b891-4735-905e-47d12ceca606",
                    "x":0,
                    "y":0
                }
            ],
            "name":"PT_5",
            "renderable":false
        }
    ]
}

