{
  "$schema": "http://json-schema.org/draft-04/schema#",
  "id": "resource:/schema/definitions#",
  "title": "disman_common",
  "description": "Disman Config Common Definitions",

  "definitions": {
    "positiveInteger": {
      "type": "integer",
      "minimum": 0,
      "exclusiveMinimum": false
    },
    "positiveIntegerNonZero": {
      "type": "integer",
      "minimum": 0,
      "exclusiveMinimum": true
    },
    "nonEmptyString": {
      "type": "string",
      "minLength": 1
    },
    "booleanDefaultFalse": {
      "type": "boolean",
      "default": false
    },
    "booleanDefaultTrue": {
      "type": "boolean",
      "default": true
    },
    "desktopTypes": {
      "enum": [ "shared", "cloned", "dedicated" ]
    },
    "uuidType": {
      "allOf": [ { "$ref": "#/definitions/nonEmptyString" },
        { "pattern": "^[a-fA-F0-9]{8}-[a-fA-F0-9]{4}-[a-fA-F0-9]{4}-[a-fA-F0-9]{4}-[a-fA-F0-9]{12}$|^none$" } ]
    }
  }
}
