{
  "$schema": "http://json-schema.org/draft-04/schema#",
  "id": "resource:/schema/gpu#",
  "title": "disman_gpu",
  "description": "Disman Config GPU Object Schema",

  "definitions": {
    "displayArray": {
      "type": "array",
      "items": { "$ref": "display.json#" },
      "minItems": 0,
      "uniqueItems": true
    }
  },

  "type": "object",
  "properties": {
    "name": { "$ref": "definitions.json#/definitions/nonEmptyString" },
    "device_path": { "$ref": "definitions.json#/definitions/nonEmptyString" },
    "config_hash": { "$ref": "definitions.json#/definitions/nonEmptyString" },
    "desktop_type": { "$ref": "definitions.json#/definitions/desktopTypes" },
    "displays": { "$ref": "#/definitions/displayArray" },
    "renderable": { "$ref": "definitions.json#/definitions/booleanDefaultFalse" }
  },
  "required": [
    "name",
    "device_path",
    "config_hash",
    "desktop_type",
    "displays"
  ]
}
