{
  "$schema": "http://json-schema.org/draft-04/schema#",
  "title": "disman",
  "description": "Disman Config Schema",

  "definitions": {
    "positiveInteger": {
      "type": "integer",
      "minimum": 0,
      "exclusiveMinimum": false
    },
    "positiveIntegerNonZero": {
      "type": "integer",
      "minimum": 0,
      "exclusiveMinimum": true
    },
    "nonEmptyString": {
      "type": "string",
      "minLength": 1
    },
    "booleanDefaultFalse": {
      "type": "boolean",
      "default": false
    },
    "booleanDefaultTrue": {
      "type": "boolean",
      "default": true
    },
    "desktopTypes": {
      "enum": [ "shared", "cloned", "dedicated" ]
    },
    "uuidType": {
      "allOf": [ { "$ref": "#/definitions/nonEmptyString" },
        { "pattern": "^[a-fA-F0-9]{8}-[a-fA-F0-9]{4}-[a-fA-F0-9]{4}-[a-fA-F0-9]{4}-[a-fA-F0-9]{12}$|^none$" } ]
    },
    "gpuArray": {
      "type": "array",
      "items": { "$ref": "#/definitions/gpuObject" },
      "minItems": 1,
      "uniqueItems": true
    },
    "displayArray": {
      "type": "array",
      "items": { "$ref": "#/definitions/displayObject" },
      "minItems": 0,
      "uniqueItems": true
    },
    "modeArray": {
      "type": "array",
      "items": { "$ref": "#/definitions/modeObject" },
      "minItems": 0,
      "uniqueItems": true
    },
    "gpuObject": {
      "type": "object",
      "properties": {
        "name": { "$ref": "#/definitions/nonEmptyString" },
        "device_path": { "$ref": "#/definitions/nonEmptyString" },
        "config_hash": { "$ref": "#/definitions/nonEmptyString" },
        "desktop_type": { "$ref": "#/definitions/desktopTypes" },
        "displays": { "$ref": "#/definitions/displayArray" },
        "renderable": { "$ref": "#/definitions/booleanDefaultFalse" }
      },
      "required": [
        "name",
        "device_path",
        "config_hash",
        "desktop_type",
        "displays"
      ]
    },
    "displayObject": {
      "type": "object",
      "properties": {
        "name": { "$ref": "#/definitions/nonEmptyString" },
        "edid_hash": { "$ref": "#/definitions/nonEmptyString" },
        "x": { "type": "integer" },
        "y": { "type": "integer" },
        "uuid": { "$ref": "#/definitions/uuidType" },
        "preferred_mode_index": { "$ref": "#/definitions/positiveInteger" },
        "modes": { "$ref": "#/definitions/modeArray" }
      },
      "required": [
        "name",
        "edid_hash",
        "x",
        "y",
        "uuid",
        "preferred_mode_index",
        "modes"
      ]
    },
    "modeObject": {
      "type": "object",
      "properties": {
        "name": { "$ref": "#/definitions/nonEmptyString" },
        "width": { "$ref": "#/definitions/positiveIntegerNonZero" },
        "height": { "$ref": "#/definitions/positiveIntegerNonZero" }
      },
      "required": [
        "name",
        "width",
        "height"
      ]
    }
  },

  "type": "object",
  "properties": {
    "frame_time": { "$ref": "#/definitions/positiveIntegerNonZero" },
    "banner_height": { "$ref": "#/definitions/positiveInteger" },
    "gpus": { "$ref": "#/definitions/gpuArray" }
  },
  "required": [
    "frame_time",
    "banner_height",
    "gpus"
  ]
}
